Heatmap figure
…
Lets make all the combinations of essential oils and antibiotics:

combinations <- expand_grid(v1 = ab_eo, v2 = ab_eo)

Calculating the correlation coefficients and p values for all the combinations of essential oils and antibiotics:

corval <- combinations %>% 
  mutate(a = map2(v1, v2, cor_coef)) %>% 
  unnest_wider(a)

Which gives:

corval

## # A tibble: 400 x 5
##    v1        v2             corcoef  p_value coefval
##    <chr>     <chr>            <dbl>    <dbl>   <dbl>
##  1 product_A product_A     1        0         1     
##  2 product_A Cinnamon      0.0996   0.0332    0.327 
##  3 product_A Peppermint   -0.00167  0.794    -0.0229
##  4 product_A Tea_tree      0.0491   0.146     0.216 
##  5 product_A Black_pepper  0.00267  0.740     0.0460
##  6 product_A Garlic       -0.0123   0.476    -0.0470
##  7 product_A Cajeput       0.0991   0.0337    0.245 
##  8 product_A Oregano       0.210    0.000957  0.313 
##  9 product_A SXT          -0.0327   0.257    -0.111 
## 10 product_A DOX           0.000506 0.890     0.0194
## #  with 390 more rows
…
